{
  "ignore": [".git", "node_modules", "src/repo", "output.md"],
  "ext": "ts,json,md",
  "watch": ["*"],
  "exec": "node --experimental-specifier-resolution=node --no-warnings --loader ts-node/esm index.ts"
}
